…
191 139.5   2.1      26.6  10.3
192 191.1  28.7      18.2  17.3
193 286.0  13.9       3.7  15.9
194  18.7  12.1      23.4   6.7
195  39.5  41.1       5.8  10.8
196  75.5  10.8       6.0   9.9
197  17.2   4.1      31.6   5.9
198 166.8  42.0       3.6  19.6
200 149.7  35.6       6.0  17.3
201  38.2   3.7      13.8   7.6
202  94.2   4.9       8.1   9.7
203 177.0   9.3       6.4  12.8
204 283.6  42.0      66.2  25.5
205 232.1   8.6       8.7  13.4
# A tibble: 37 × 5
   Distributors           `# of Releases` `$Worldwide` `Avg Rating` Avg_Revenue
   <chr>                            <dbl>        <dbl>        <dbl>       <dbl>
 1 All Other Distributors             101   1248852865         6.06   12364880.
 2 20th Century                         1    397378150         7.1   397378150 
 3 A24                                  4    224292259         6.99   56073065.
 4 Affirm Films                         1     40392664         8.26   40392664 
 5 Amazon MGM                           3   1248852865         6.93  416284288.
 6 Cineverse                            1    423873817         6.9   423873817 
 7 CJ CGV                               1     21714524         7.1    21714524 
 8 CJ ENM                               1     53453611         6.7    53453611 
 9 Columbia                             3    174973838         6.40   58324613.
10 Constant Film                        1     29663607         5.7    29663607 
# ℹ 27 more rows
# ℹ Use `print(n = ...)` to see more rows
…
