…
# A tibble: 37 × 5
   Distributors           `# of Releases` `$Worldwide` `Avg Rating` Avg_Revenue
   <chr>                            <dbl>        <dbl>        <dbl>       <dbl>
 1 All Other Distributors             101   1248852865         6.06   12364880.
 2 20th Century                         1    397378150         7.1   397378150 
 3 A24                                  4    224292259         6.99   56073065.
 4 Affirm Films                         1     40392664         8.26   40392664 
 5 Amazon MGM                           3   1248852865         6.93  416284288.
 6 Cineverse                            1    423873817         6.9   423873817 
 7 CJ CGV                               1     21714524         7.1    21714524 
 8 CJ ENM                               1     53453611         6.7    53453611 
 9 Columbia                             3    174973838         6.40   58324613.
10 Constant Film                        1     29663607         5.7    29663607 
# ℹ 27 more rows
# ℹ Use `print(n = ...)` to see more rows
# A tibble: 37 × 6
   Distributors           `# of Releases` `$Worldwide` `Avg Rating` Avg_Revenue NameRevenue
   <chr>                            <dbl>        <dbl>        <dbl>       <dbl> <list>     
 1 All Other Distributors             101   1248852865         6.06   12364880. <chr [2]>  
 2 20th Century                         1    397378150         7.1   397378150  <chr [2]>  
 3 A24                                  4    224292259         6.99   56073065. <chr [2]>  
 4 Affirm Films                         1     40392664         8.26   40392664  <chr [2]>  
 5 Amazon MGM                           3   1248852865         6.93  416284288. <chr [2]>  
 6 Cineverse                            1    423873817         6.9   423873817  <chr [2]>  
 7 CJ CGV                               1     21714524         7.1    21714524  <chr [2]>  
 8 CJ ENM                               1     53453611         6.7    53453611  <chr [2]>  
 9 Columbia                             3    174973838         6.40   58324613. <chr [2]>  
10 Constant Film                        1     29663607         5.7    29663607  <chr [2]>  
# ℹ 27 more rows
# ℹ Use `print(n = ...)` to see more rows
…
Coefficients:
                  Estimate Std. Error t value Pr(>|t|)    
(Intercept)      6.716e+00  2.884e-01  23.289   <2e-16 ***
Avg_Revenue      6.991e-10  2.349e-09   0.298    0.768    
`# of Releases` -6.707e-03  1.490e-02  -0.450    0.656    
`$Worldwide`     3.450e-11  3.780e-10   0.091    0.928    
---
Signif. codes:  0 ‘***’ 0.001 ‘**’ 0.01 ‘*’ 0.05 ‘.’ 0.1 ‘ ’ 1

Residual standard error: 1.31 on 33 degrees of freedom
Multiple R-squared:  0.01942,	Adjusted R-squared:  -0.06972 
F-statistic: 0.2179 on 3 and 33 DF,  p-value: 0.8833

[1] 0.0194244
# A tibble: 37 × 2
   Avg_Revenue `Avg Rating`
         <dbl>        <dbl>
 1   12364880.         6.06
 2  397378150          7.1 
 3   56073065.         6.99
 4   40392664          8.26
 5  416284288.         6.93
 6  423873817          6.9 
 7   21714524          7.1 
 8   53453611          6.7 
 9   58324613.         6.40
10   29663607          5.7 
# ℹ 27 more rows
# ℹ Use `print(n = ...)` to see more rows
…
Residual standard error: NaN on 0 degrees of freedom
Multiple R-squared:      1,	Adjusted R-squared:    NaN 
F-statistic:   NaN on 95 and 0 DF,  p-value: NA

[1] 1
# A tibble: 96 × 2
   `$Worldwide`      Rating
   <chr>             <chr> 
 1 $1,698,772,985.00 7.57  
 2 $1,338,073,645.00 7.70  
 3 $969,126,452.00   7.10  
 4 $896,608,683.00   6.96  
 5 $714,444,358.00   8.20  
 6 $640,176,210.00   7.41  
 7 $571,750,016.00   7.10  
 8 $547,689,492.00   7.07  
 9 $476,857,448.00   6.80  
10 $451,100,435.00   7.10  
# ℹ 86 more rows
# ℹ Use `print(n = ...)` to see more rows
…
